{
    "setup": {
	    "pulse_duration": 5,
	    "requests_per_pulse": 5,
	    "number_of_pulses": 2,
	    "max_number_of_threads": 100
	},
    "pageload": {
        "url": "http://website.to.test.com/",
        "login_required": true,
        "login_url": "http://website.to.test.com/accounts/login/",
        "login_action": "/accounts/login/",
        "username": "username",
        "password": "password",
        "csrf_required": true,
        "csrf_payload_name": "csrftoken",
        "csrf_regex": "input type='hidden' name='csrftoken' value='(.+?)'"
    }
}